<?xml version="1.0" encoding="UTF-8"?>
<svg width="14px" height="12px" viewBox="0 0 14 12" version="1.1" xmlns="http://www.w3.org/2000/svg" xmlns:xlink="http://www.w3.org/1999/xlink">
    <!-- Generator: Sketch 52.3 (67297) - http://www.bohemiancoding.com/sketch -->
    <title>Shape</title>
    <desc>Created with Sketch.</desc>
    <g id="UI" stroke="none" stroke-width="1" fill="none" fill-rule="evenodd">
        <g id="main_1440_hover" transform="translate(-325.000000, -7039.000000)" fill="#FFECBC" fill-rule="nonzero">
            <g id="footer-hover" transform="translate(0.000000, 6724.000000)">
                <g id="contacts" transform="translate(325.000000, 314.000000)">
                    <g id="hover">
                        <g>
                            <path d="M12.6,1 L1.4,1 C0.63,1 0,1.63 0,2.4 L0,10.8 C0,11.57 0.63,12.2 1.4,12.2 L12.6,12.2 C13.37,12.2 14,11.57 14,10.8 L14,2.4 C14,1.63 13.37,1 12.6,1 Z M12.6,3.8 L7,7.3 L1.4,3.8 L1.4,2.4 L7,5.9 L12.6,2.4 L12.6,3.8 Z" id="Shape"></path>
                        </g>
                    </g>
                </g>
            </g>
        </g>
    </g>
</svg>