<?xml version="1.0" encoding="UTF-8"?>
<svg width="60px" height="60px" viewBox="0 0 60 60" version="1.1" xmlns="http://www.w3.org/2000/svg" xmlns:xlink="http://www.w3.org/1999/xlink">
    <!-- Generator: Sketch 52.3 (67297) - http://www.bohemiancoding.com/sketch -->
    <title>Group 6</title>
    <desc>Created with Sketch.</desc>
    <g id="UI" stroke="none" stroke-width="1" fill="none" fill-rule="evenodd">
        <g id="calendar_list_1440" transform="translate(-1236.000000, -231.000000)" fill-rule="nonzero">
            <g id="head">
                <g id="Group-10" transform="translate(1236.000000, 231.000000)">
                    <g id="Group-7">
                        <g id="Group-6">
                            <rect id="Rectangle-Copy-13" stroke="#CB2026" x="0.5" y="0.5" width="59" height="59" rx="3"></rect>
                            <g id="Group-5" transform="translate(10.000000, 14.000000)" fill="#CA2026">
                                <rect id="Rectangle" x="0" y="0" width="40" height="8"></rect>
                                <rect id="Rectangle-Copy" x="0" y="12" width="40" height="8"></rect>
                                <rect id="Rectangle-Copy-2" x="0" y="24" width="40" height="8"></rect>
                            </g>
                        </g>
                    </g>
                </g>
            </g>
        </g>
    </g>
</svg>